{
  "library": "spring-cloud",
  "dateLibrary": "java8",
  "java8": true,
  "useTags": true,
  "hideGenerationTimestamp": true,
  "booleanGetterPrefix": "is",
  "generateForOpenFeign": true,
  "removeEnumValuePrefix": false,
  "documentationProvider": "none",
  "annotationLibrary": "none",
  "useSpringBoot3": true,
  "typeMappings": {
    "OffsetDateTime": "java.time.Instant",
    "Date": "java.time.LocalDate"
  },
  "importMappings": {
    "java.time.OffsetDateTime": "java.time.Instant",
    "java.util.Date": "java.time.LocalDate"
  },
  "inlineSchemaOptions": {
    "ARRAY_ITEM_SUFFIX": "",
    "MAP_ITEM_SUFFIX": "",
    "SKIP_SCHEMA_REUSE": "true"
  }
}
